module shop-api

go 1.19

require (
	github.com/andybalholm/brotli v1.0.4 // indirect
	github.com/go-sql-driver/mysql v1.6.0 // indirect
	github.com/gofiber/fiber/v2 v2.40.1 // indirect
	github.com/jinzhu/inflection v1.0.0 // indirect
	github.com/jinzhu/now v1.1.5 // indirect
	github.com/klauspost/compress v1.15.9 // indirect
	github.com/mattn/go-colorable v0.1.13 // indirect
	github.com/mattn/go-isatty v0.0.16 // indirect
	github.com/mattn/go-runewidth v0.0.14 // indirect
	github.com/mattn/go-sqlite3 v1.14.16 // indirect
	github.com/rivo/uniseg v0.2.0 // indirect
	github.com/valyala/bytebufferpool v1.0.0 // indirect
	github.com/valyala/fasthttp v1.41.0 // indirect
	github.com/valyala/tcplisten v1.0.0 // indirect
	golang.org/x/sys v0.0.0-20220811171246-fbc7d0a398ab // indirect
	gorm.io/driver/mysql v1.4.4 // indirect
	gorm.io/driver/sqlite v1.4.3 // indirect
	gorm.io/gorm v1.24.2 // indirect
)
